mass,x,y,z
27,4,0.5,4
27,3,0.5,4
27,2,0.5,4
27,1,0.5,4
27,0,0.5,4
27,-1,0.5,4
27,-2,0.5,4
27,-3,0.5,4
27,-4,0.5,4
14,4,1.5,4
14,3,1.5,4
14,2,1.5,4
14,1,1.5,4
14,0,1.5,4
14,-1,1.5,4
14,-2,1.5,4
14,-3,1.5,4
14,-4,1.5,4
7,4,2.5,4
7,3,2.5,4
7,2,2.5,4
7,1,2.5,4
7,0,2.5,4
7,-1,2.5,4
7,-2,2.5,4
7,-3,2.5,4
7,-4,2.5,4
3,4,3.5,4
3,3,3.5,4
3,2,3.5,4
3,1,3.5,4
3,0,3.5,4
3,-1,3.5,4
3,-2,3.5,4
3,-3,3.5,4
3,-4,3.5,4
1,4,4.5,4
1,3,4.5,4
1,2,4.5,4
1,1,4.5,4
1,0,4.5,4
1,-1,4.5,4
1,-2,4.5,4
1,-3,4.5,4
1,-4,4.5,4
